         number           time          count
              0             78           1000
              1            470          10000
              2           4410         100000
              3          43904        1000000
              4         431820       10000000
