         number           size          count
              0             88            100
              1            584           1000
              2           5536          10000
              3          55168         100000
